{
 "add_total_row": 0,
 "creation": "2021-02-25 14:36:20.881205",
 "disable_prepared_report": 0,
 "disabled": 0,
 "docstatus": 0,
 "doctype": "Report",
 "idx": 0,
 "is_standard": "Yes",
 "letter_head": "Company Letter Head",
 "modified": "2021-02-25 14:38:48.626768",
 "modified_by": "Administrator",
 "module": "Shipping Management",
 "name": "UNRECONCILED PAYMENT ENTRY",
 "owner": "tailorraj111@gmail.com",
 "prepared_report": 0,
 "ref_doctype": "Payment Entry",
 "report_name": "UNRECONCILED PAYMENT ENTRY",
 "report_type": "Script Report",
 "roles": [
  {
   "role": "Accounts Manager"
  },
  {
   "role": "Accounts User"
  },
  {
   "role": "Credit Control"
  },
  {
   "role": "Accounts Head"
  },
  {
   "role": "Credit Control"
  },
  {
   "role": "Accounts Head"
  },
  {
   "role": "Accounts User"
  },
  {
   "role": "Accounts Manager"
  },
  {
   "role": "Credit Control"
  },
  {
   "role": "Accounts Head"
  },
  {
   "role": "Accounts User"
  },
  {
   "role": "Accounts Manager"
  },
  {
   "role": "Purchase Manager"
  }
 ]
}