{
 "autoname": "naming_series:",
 "creation": "2020-11-11 17:04:10.900432",
 "doctype": "DocType",
 "editable_grid": 1,
 "engine": "InnoDB",
 "field_order": [
  "naming_series",
  "section_break_2",
  "sales_invoice_no",
  "customer",
  "column_break_4",
  "invoice_date",
  "amended_from",
  "section_break_8",
  "shipping_address",
  "section_break_10",
  "primary_ship_addr",
  "city",
  "column_break_13",
  "state",
  "courier_info_section",
  "courier_name",
  "courier_receipt_no",
  "no_of_box",
  "driver",
  "vehicle_no",
  "distance_in_km",
  "column_break_22",
  "courier_gst_id",
  "courier_receipt_date",
  "mode_of_transport",
  "driver_name",
  "gst_vehicle_type"
 ],
 "fields": [
  {
   "fieldname": "naming_series",
   "fieldtype": "Select",
   "label": "Naming Series",
   "options": "ICD-.YYYY.-"
  },
  {
   "fieldname": "sales_invoice_no",
   "fieldtype": "Link",
   "in_list_view": 1,
   "in_standard_filter": 1,
   "label": "Sales Invoice No",
   "options": "Sales Invoice",
   "reqd": 1
  },
  {
   "fetch_from": "sales_invoice_no.customer",
   "fieldname": "customer",
   "fieldtype": "Link",
   "in_list_view": 1,
   "in_standard_filter": 1,
   "label": "Customer",
   "options": "Customer",
   "read_only": 1
  },
  {
   "fetch_from": "sales_invoice_no.posting_date",
   "fieldname": "invoice_date",
   "fieldtype": "Date",
   "in_standard_filter": 1,
   "label": "Invoice Date"
  },
  {
   "fieldname": "section_break_2",
   "fieldtype": "Section Break"
  },
  {
   "fieldname": "column_break_4",
   "fieldtype": "Column Break"
  },
  {
   "fieldname": "amended_from",
   "fieldtype": "Link",
   "label": "Amended From",
   "no_copy": 1,
   "options": "Item Courier Details",
   "print_hide": 1,
   "read_only": 1
  },
  {
   "fieldname": "section_break_8",
   "fieldtype": "Section Break"
  },
  {
   "fetch_from": "sales_invoice_no.shipping_address",
   "fieldname": "shipping_address",
   "fieldtype": "Text Editor",
   "label": "Shipping Address"
  },
  {
   "fieldname": "section_break_10",
   "fieldtype": "Section Break"
  },
  {
   "fetch_from": "sales_invoice_no.shipping_address_name",
   "fieldname": "primary_ship_addr",
   "fieldtype": "Link",
   "hidden": 1,
   "label": "primary ship addr",
   "options": "Address"
  },
  {
   "fetch_from": "primary_ship_addr.city",
   "fieldname": "city",
   "fieldtype": "Data",
   "label": "City"
  },
  {
   "fieldname": "column_break_13",
   "fieldtype": "Column Break"
  },
  {
   "fetch_from": "primary_ship_addr.state",
   "fieldname": "state",
   "fieldtype": "Data",
   "label": "State"
  },
  {
   "fieldname": "courier_info_section",
   "fieldtype": "Section Break",
   "label": "Courier Info"
  },
  {
   "fieldname": "courier_name",
   "fieldtype": "Select",
   "in_list_view": 1,
   "label": "Courier Name",
   "reqd": 1
  },
  {
   "fieldname": "courier_receipt_no",
   "fieldtype": "Data",
   "label": "Courier Receipt No.",
   "reqd": 1
  },
  {
   "fieldname": "no_of_box",
   "fieldtype": "Int",
   "in_list_view": 1,
   "label": "No. of Box",
   "reqd": 1
  },
  {
   "fieldname": "driver",
   "fieldtype": "Data",
   "label": "Driver"
  },
  {
   "fieldname": "vehicle_no",
   "fieldtype": "Data",
   "label": "Vehicle No."
  },
  {
   "fieldname": "distance_in_km",
   "fieldtype": "Float",
   "label": "Distance (in km)"
  },
  {
   "fieldname": "column_break_22",
   "fieldtype": "Column Break"
  },
  {
   "fieldname": "courier_gst_id",
   "fieldtype": "Data",
   "label": "Courier GST ID"
  },
  {
   "fieldname": "courier_receipt_date",
   "fieldtype": "Date",
   "label": "Courier Receipt Date",
   "reqd": 1
  },
  {
   "default": "Surface",
   "fieldname": "mode_of_transport",
   "fieldtype": "Select",
   "label": "Mode of Transport",
   "options": "\nSurface\nAir",
   "reqd": 1
  },
  {
   "fieldname": "driver_name",
   "fieldtype": "Data",
   "label": "Driver Name"
  },
  {
   "fieldname": "gst_vehicle_type",
   "fieldtype": "Select",
   "label": "GST Vehicle Type",
   "options": "\nRegular\nOver Dimensional Cargo (ODC)"
  }
 ],
 "is_submittable": 1,
 "modified": "2020-11-12 00:31:12.373222",
 "modified_by": "Administrator",
 "module": "Shipping Management",
 "name": "Item Courier Details",
 "owner": "Administrator",
 "permissions": [
  {
   "create": 1,
   "delete": 1,
   "email": 1,
   "export": 1,
   "print": 1,
   "read": 1,
   "report": 1,
   "role": "System Manager",
   "share": 1,
   "write": 1
  }
 ],
 "sort_field": "modified",
 "sort_order": "DESC",
 "track_changes": 1
}