{
 "align_labels_right": 0,
 "creation": "2020-04-01 07:56:53.116568",
 "custom_format": 1,
 "default_print_language": "en",
 "disabled": 0,
 "doc_type": "Sales Order",
 "docstatus": 0,
 "doctype": "Print Format",
 "font": "Default",
 "html": "{%- from \"templates/print_formats/standard_macros.html\" import add_header -%}\r\n<div>\r\n    {%- if not doc.get(\"print_heading\") and not doc.get(\"select_print_heading\")\r\n        and doc.set(\"select_print_heading\", _(\"Sales Order\")) -%}{%- endif -%}\r\n    {{ add_header(0, 1, doc, letter_head, no_letterhead, print_settings) }}\r\n    <div class=\"row margin-bottom\">\r\n        <div class=\"col-xs-6\">\r\n            <table>\r\n            <tr><td><strong>Company : </strong></td><td class=\"text-right\">{{ doc.company }}</td></tr>\r\n            <tr><td><strong>Company Address: </strong></td><td class=\"text-right\">{% if doc.company_address %}{{ doc.company_address_display }}{% else %}  -{% endif %}</td></tr>\r\n            </table>\r\n        </div>\r\n        <div class=\"col-xs-6\">\r\n            <table>\r\n                <tr><td><strong>Date: </strong></td><td class=\"text-right\">{{ frappe.utils.formatdate(doc.creation) }}</td></tr>\r\n                <tr><td><strong>Delivery Date: </strong></td><td class=\"text-right\">{{ frappe.utils.formatdate(doc.delivery_date) }}</td></tr>\r\n                \r\n            </table>\r\n        </div>\r\n    </div>\r\n    <hr>\r\n    <div class=\"row margin-bottom\">\r\n        <div class=\"col-xs-6\">\r\n            <table>\r\n            <tr><td><strong>Customer Name: </strong></td><td class=\"text-right\">{{ doc.customer }}</td></tr>\r\n            \r\n            <tr><td><strong>Address: </strong></td><td class=\"text-right\">{% if doc.address_display %}{{doc.address_display}}{% else %}  -{% endif %}</td></tr>\r\n            <tr><td><strong>Contact: </strong></td><td class=\"text-right\">{% if doc.contact_display %}{{doc.contact_display}}{% else %}  -{% endif %}</td></tr>\r\n            <tr><td><strong>Mobile no: </strong> </td><td class=\"text-right\">{% if doc.contact_mobile%}{{doc.contact_mobile}}{% else %}  -{% endif %}</td></tr>\r\n            </table>\r\n        </div>\r\n        <div class=\"col-xs-6\">\r\n            <table>\r\n                <tr><td><strong>Shipping Address: </strong></td><td class=\"text-right\">{% if doc.shipping_address %}{{ doc.shipping_address }}{% else %}  -{% endif %}</td></tr>\r\n                \r\n            </table>\r\n        </div>\r\n    </div>\r\n    <div class=\"margin-top margin-bottom\">\r\n        <table class=\"table table-bordered table-condensed\">\r\n            <tr>\r\n                <th>SL</th>\r\n                <th>Item Code</th>\r\n                <th>Item Name</th>\r\n                <th>UOM</th>\r\n                <th>Quantity</th>\r\n                <th>Basic Rate</th>\r\n                <th>Amount</th>\r\n            </tr>\r\n            {% for item in doc.items %}\r\n            {% if item.item_group != \"Shipping Item\" %}\r\n            <tr>\r\n                <td>{{ loop.index }}</td>\r\n                <td>{{ item.item_code }}</td>\r\n                <td>{{ item.item_name }}</td>\r\n                <td>{{ item.uom }}</td>\r\n                <td>{{ item.qty}}</td>\r\n                <td>{{ item.rate }}</td>\r\n                <td>{{ item.amount }}</td>\r\n            </tr>\r\n            {% endif %}\r\n            {% endfor %}\r\n        </table>\r\n    </div>\r\n    <div class=\"row margin-bottom\">\r\n        <div class=\"col-xs-6\"></div>\r\n        \r\n    <div class=\"col-xs-6\">\r\n        <table >\r\n            <tr><td><strong>Total: </strong></td><td class=\"text-right\">{% for item in doc.items %}\r\n                {% if item.item_group == \"Shipping Item\" %}\r\n                {{doc.total - item.amount}}{% endif %}\r\n                {% endfor %}</td></tr>\r\n                <tr><td><strong>Discount: </strong></td>\r\n                <td class=\"text-right\">{% if doc.custom_discount_amount %}{{doc.custom_discount_amount}}{% endif %}</td>\r\n                </tr>\r\n                <tr><td><strong>{% for item in doc.items %}\r\n                    {% if item.item_group == \"Shipping Item\" %}\r\n                    {{item.item_name}}\r\n                    : </strong></td><td class=\"text-right\">{{item.amount}}</td></tr>{% endif %}\r\n                    {% endfor %}\r\n                \r\n                {% for tax in doc.taxes %}\r\n                    {% if tax.tax_amount_after_discount_amount!= 0 %}\r\n                        <tr><td><strong>{{ tax.account_head }}: </strong></td><td class=\"text-right\">{{ tax.tax_amount_after_discount_amount }}</td></tr>\r\n                    {% endif %}\r\n                {% endfor %}\r\n                <tr><td><strong>Grand Total: </strong></td><td class=\"right top-bottom text-right\">{{ doc.grand_total }}</td></tr>\r\n                <tr><td><strong>Rounded Total: </strong></td><td class=\"text-right\">{{ doc.rounded_total }}</td></tr>\r\n                <tr><td><strong>In Words: </strong></td><td class=\"text-right\">{{ doc.in_words }}</td></tr>\r\n            </table>\r\n        </div>\r\n    </div>\r\n    <div class=\"margin-top\">\r\n        {% if doc.other_charges_calculation %}{{doc.other_charges_calculation}}{% endif %}\r\n    </div>\r\n    <div class=\"margin-top\">\r\n        <strong> Terms and Condition: </strong>{% if doc.terms %}{{doc.terms}}{% else %}  -{% endif %}\r\n    </div>\r\n</div>",
 "idx": 0,
 "line_breaks": 0,
 "modified": "2020-04-02 02:30:23.701351",
 "modified_by": "Administrator",
 "module": "Shipping Management",
 "name": "Custom Sales Order",
 "owner": "Administrator",
 "print_format_builder": 0,
 "print_format_type": "Jinja",
 "raw_printing": 0,
 "show_section_headings": 0,
 "standard": "Yes"
}