{
 "creation": "2021-04-26 22:43:44.314713",
 "doctype": "DocType",
 "editable_grid": 1,
 "engine": "InnoDB",
 "field_order": [
  "item_code",
  "major_change",
  "minor_change",
  "date",
  "column_break_5",
  "remarks"
 ],
 "fields": [
  {
   "fieldname": "item_code",
   "fieldtype": "Data",
   "in_list_view": 1,
   "label": "Item Code"
  },
  {
   "fieldname": "major_change",
   "fieldtype": "Data",
   "in_list_view": 1,
   "label": "Major Change"
  },
  {
   "fieldname": "minor_change",
   "fieldtype": "Data",
   "in_list_view": 1,
   "label": "Minor Change"
  },
  {
   "fieldname": "date",
   "fieldtype": "Date",
   "in_list_view": 1,
   "label": "Date"
  },
  {
   "fieldname": "column_break_5",
   "fieldtype": "Column Break"
  },
  {
   "fieldname": "remarks",
   "fieldtype": "Small Text",
   "label": "Remarks"
  }
 ],
 "istable": 1,
 "modified": "2021-04-26 22:43:44.314713",
 "modified_by": "Administrator",
 "module": "Shipping Management",
 "name": "Item Version",
 "owner": "Administrator",
 "permissions": [],
 "quick_entry": 1,
 "sort_field": "modified",
 "sort_order": "DESC",
 "track_changes": 1
}