{
 "absolute_value": 0,
 "align_labels_right": 0,
 "creation": "2021-04-24 14:30:54.452155",
 "css": ".print-format{\r\nfont-size:8px;}\r\n\r\n.print-format td, .print-format th {\r\n    vertical-align: top !important;\r\n    padding: 3px !important;\r\n}\r\n\r\n.col-xs-1, .col-sm-1, .col-md-1, .col-lg-1, .col-xs-2, .col-sm-2, .col-md-2, .col-lg-2, .col-xs-3, .col-sm-3, .col-md-3, .col-lg-3, .col-xs-4, .col-sm-4, .col-md-4, .col-lg-4, .col-xs-5, .col-sm-5, .col-md-5, .col-lg-5, .col-xs-6, .col-sm-6, .col-md-6, .col-lg-6, .col-xs-7, .col-sm-7, .col-md-7, .col-lg-7, .col-xs-8, .col-sm-8, .col-md-8, .col-lg-8, .col-xs-9, .col-sm-9, .col-md-9, .col-lg-9, .col-xs-10, .col-sm-10, .col-md-10, .col-lg-10, .col-xs-11, .col-sm-11, .col-md-11, .col-lg-11, .col-xs-12, .col-sm-12, .col-md-12, .col-lg-12 {\r\n    position: relative;\r\n    min-height: 1px;\r\n    padding-right: 0px !important;\r\n    padding-left: 15px;\r\n}",
 "custom_format": 1,
 "disabled": 0,
 "doc_type": "Purchase Invoice",
 "docstatus": 0,
 "doctype": "Print Format",
 "font": "Default",
 "html": "{%- from \"templates/print_formats/standard_macros.html\" import add_header -%}\r\n<div>\r\n   <div class=\"col-lg12\">\r\n       \r\n\r\n<table width=\"100%\" border=\"0\" cellspacing=\"0\" cellpadding=\"5\">\r\n<tr>\r\n<td style=\"border-right:1px solid #ccc;\"><img src=\"https://www.trueview.co.in/wp-content/uploads/2018/12/logo.png\" height=\"50px\" /></td>\r\n<td width=\"70%\" align=\"right\">\r\n<strong style=\"font-size: 14px;\">WARNER ELECTRONICS (I) PVT. LTD.</strong><br />\r\nPlot No. A114/6, Five Star Industrial Area,\r\nMumbai \u2013 Nagpur Highway, <br/>Shendra, Aurangabad \u2013 431203<br />\r\nsales@trueview.co.in | www.trueview.co.in\r\n</td>\r\n</tr>\r\n\r\n<tr  >\r\n<td></td>\r\n<td width=\"\" align=\"left\">\r\n<strong style=\"margin-left: 73px; font-size:14px;\">PURCHASE ORDER</strong><br />\r\n\r\n</td>\r\n</tr>\r\n</table>\r\n       \r\n   </div> <!--End of Custom Header-->\r\n    \r\n   <!--div class=\"text-center\"> {%- if not doc.get(\"print_heading\") and not doc.get(\"select_print_heading\")\r\n        and doc.set(\"select_print_heading\", _(\"Sales Invoice\")) -%}{%- endif -%}\r\n        \r\n    {{ add_header(0, 1, doc, letter_head, no_letterhead, print_settings) }}\r\n    \r\n    </div--><!--div class=\"row \">\r\n        <div class=\"col-xs-6\">\r\n            <table>\r\n            <tr><td><strong>Company : </strong></td><td class=\"text-right\">{{ doc.company }}</td></tr>\r\n            <tr><td><strong>Company Address: </strong></td><td class=\"text-right\">{% if doc.company_address %}{{ doc.company_address_display }}{% else %}  -{% endif %}</td></tr>\r\n            </table>\r\n        </div>\r\n        \r\n    </div-->\r\n    \r\n    <div class=\"row margin-bottom\">\r\n        <div class=\"col-xs-4\">\r\n            \r\n            <strong>Supplier: </strong><br/>\r\n            <strong>{{ doc.supplier }}</strong><br/>\r\n            \r\n                    {% if doc.address_display %}{{doc.address_display}}{% else %}  -{% endif %} <br/>\r\n                    \r\n            \r\n            <!--tr><td><strong>GST No.: </strong> </td><td class=\"text-right bold\">{{doc.tax_id}}</td></tr-->\r\n            \r\n        </div>\r\n        <div class=\"col-xs-4\">\r\n            <strong>Shipping : </strong><br/>\r\n            <!--strong>{{ doc.supplier }}</strong><br/-->\r\n            <strong>{{ doc.company }}</strong><br/>\r\n\r\n            {% if doc.shipping_address_display %}{{ doc.shipping_address_display }}{% else %}  -{% endif %} <br/>\r\n                    \r\n                    <!--strong>GST No.: </strong><p class=\"text-right bold\">{{doc.tax_id}}</p-->\r\n            \r\n        </div>\r\n        <div class=\"col-xs-4 \">\r\n            <table>\r\n                <tr><td><strong>Purchase Order  No: </strong></td><td class=\"text-right pull-right\">{{ doc.name }} </td></tr>\r\n                <tr><td><strong>Purchase Order Date: </strong></td><td class=\"text-right pull-right\">{{ frappe.utils.formatdate(doc.creation) }}</td></tr>\r\n                <tr><td><strong>Due Date: </strong></td><td class=\"text-right\">{{ frappe.utils.formatdate(doc.schedule_date) }}</td></tr>\r\n                <!--tr><td><strong>Sales Order Executive: </strong></td><td class=\"text-right\"></td></tr-->\r\n                \r\n            </table>\r\n        </div>\r\n    </div>\r\n    <div class=\"margin-top margin-bottom\">\r\n        <table class=\"table table-bordered table-condensed\">\r\n            <tr>\r\n                \r\n                <th>P_Code</th>\r\n               \r\n                <th>Product Description </th>\r\n                \r\n                <th>HSN</th>\r\n                <th>Quantity</th>\r\n                <th>Rate</th>\r\n                <th>Amount</th>\r\n            </tr>\r\n            {% for item in doc.items %}\r\n            {% if item.item_group != \"Shipping Item\" %}\r\n            <tr>\r\n                \r\n                <td class=\"text-right\">{{ item.item_code }}</td>\r\n                \r\n                <td>{{ item.item_name }}</td>\r\n                \r\n                <td class=\"text-right\">{{ item.gst_hsn_code }}</td>\r\n                <td class=\"text-right\">{{ item.qty}}</td>\r\n                <td class=\"text-right\">\u20b9{{'%0.2f' % item.rate }}</td>\r\n                <td class=\"text-right\">\u20b9{{'%0.2f' %  item.amount }}</td>\r\n            </tr>\r\n            {% endif %}\r\n            {% endfor %}\r\n        </table>\r\n    </div>\r\n    <div class=\"row margin-bottom\">\r\n        <div class=\"col-xs-8 text-right\">\r\n        {% if doc.other_charges_calculation %}{{doc.other_charges_calculation}}{% endif %}     \r\n        </div>\r\n        \r\n    <div class=\"col-xs-3\">\r\n        <table class=\"pull-right\">\r\n            <!--tr><td><strong>Total: </strong></td><td class=\"text-right\">{% for item in doc.items %}\r\n                {% if item.item_group == \"Shipping Item\" %}\r\n                {{doc.total - item.amount}}{% endif %}\r\n                {% endfor %}</td></tr-->\r\n                \r\n                <tr><td><strong>Total:   </strong></td><td class=\"text-right\">  \u20b9{{'%0.2f' % doc.net_total}}</td>\r\n                {% if doc.custom_discount_amount %}\r\n                <tr><td><strong>Discount: </strong></td>\r\n                <td class=\"text-right\">  \u20b9{{'%0.2f' % doc.custom_discount_amount}}</td>\r\n                </tr>{% endif %}\r\n                <tr><td><strong>{% for item in doc.items %}\r\n                    {% if item.item_group == \"Shipping Item\" %}\r\n                    {{item.item_name}}\r\n                    : </strong></td><td class=\"text-right\">  \u20b9{{ '%0.2f' % item.amount}}</td></tr>{% endif %}\r\n                    {% endfor %}\r\n                \r\n                {% for tax in doc.taxes %}\r\n                    {% if tax.tax_amount_after_discount_amount!= 0 %}\r\n                        <tr><td><strong>{{ tax.account_head }}: </strong></td><td class=\"text-right\">  \u20b9{{ '%0.2f' % tax.tax_amount_after_discount_amount }}</td></tr>\r\n                    {% endif %}\r\n                {% endfor %}\r\n                 <!--<tr><td><strong>{% for item in doc.items %}-->\r\n                 <!--   {% if item.item_group == \"Shipping Item\" %}-->\r\n                 <!--   {{item.item_name}}-->\r\n                 <!--   : </strong></td><td class=\"text-right\">{{item.amount}}</td></tr>{% endif %}-->\r\n                 <!--   {% endfor %}-->\r\n                  <!--tr><td><strong>SGST: </strong></td><td class=\"right top-bottom text-right\">pending</td></tr>\r\n                   <tr><td><strong>CGST: </strong></td><td class=\"right top-bottom text-right\">pending</td></tr-->\r\n                <tr><td><strong>Net Payable: </strong></td><td class=\"text-right\">  \u20b9{{ '%0.2f' %doc.grand_total}}</td></tr>\r\n                <tr><td><strong>Round Off: </strong></td><td class=\"text-right\">  \u20b9{{'%0.2f' % doc.rounded_total }}</td></tr>\r\n                \r\n                <tr><td></td></tr>\r\n            </table>\r\n        </div>\r\n    </div>\r\n    \r\n    <div class=\"text-center\">Amount In Words: <strong>{{ doc.in_words }}</strong><br/>\r\n    </div>\r\n    <div class=\"margin-top \">\r\n        <div class=\"col-xs-8 \">\r\n        <strong>Gross Consignment Weight: {{doc.total_net_weight}} KG </strong>  <br/>  \r\n         <strong> Terms and Condition: </strong>\r\n         <p class=\"font-term\">{% if doc.terms %}{{doc.terms}}{% else %}  -{% endif %} </p>    \r\n        </div>\r\n        <div class=\"col-xs-4 text-right\">\r\n            <strong>For Warner Electronics (I) Pvt. Ltd.</strong>\r\n                <br /><br /><br /><br />\r\n            <strong>Authorised Signatory</strong>\r\n        </div>\r\n       \r\n    </div>\r\n    <hr/>\r\n    <BR/>\r\n    \r\n    \r\n</div>\r\n\r\n",
 "idx": 0,
 "line_breaks": 0,
 "modified": "2021-04-24 14:40:23.196735",
 "modified_by": "Administrator",
 "module": "Shipping Management",
 "name": "Purchase Print",
 "owner": "Administrator",
 "print_format_builder": 1,
 "print_format_type": "Jinja",
 "raw_printing": 0,
 "show_section_headings": 0,
 "standard": "Yes"
}