{
 "align_labels_right": 0,
 "creation": "2020-10-21 18:10:03.922875",
 "css": ".print-format{\r\nfont-size:8px;}\r\n\r\n.print-format td, .print-format th {\r\n    vertical-align: top !important;\r\n    padding: 3px !important;\r\n}\r\n\r\n/*.col-xs-1, .col-sm-1, .col-md-1, .col-lg-1, .col-xs-2, .col-sm-2, .col-md-2, .col-lg-2, .col-xs-3, .col-sm-3, .col-md-3, .col-lg-3, .col-xs-4, .col-sm-4, .col-md-4, .col-lg-4, .col-xs-5, .col-sm-5, .col-md-5, .col-lg-5, .col-xs-6, .col-sm-6, .col-md-6, .col-lg-6, .col-xs-7, .col-sm-7, .col-md-7, .col-lg-7, .col-xs-8, .col-sm-8, .col-md-8, .col-lg-8, .col-xs-9, .col-sm-9, .col-md-9, .col-lg-9, .col-xs-10, .col-sm-10, .col-md-10, .col-lg-10, .col-xs-11, .col-sm-11, .col-md-11, .col-lg-11, .col-xs-12, .col-sm-12, .col-md-12, .col-lg-12 {\r\n    position: relative;\r\n    min-height: 1px;\r\n    padding-right: 0px !important;\r\n    padding-left: 15px;\r\n}*/\r\n@media print{\r\n    .div-taxbreakup{\r\n        padding-right:25px !important;\r\n    }\r\n    .table-qty{\r\n        margin-left:-13px !important;\r\n    }\r\n}\r\n\r\n",
 "custom_format": 1,
 "default_print_language": "en",
 "disabled": 0,
 "doc_type": "Delivery Note",
 "docstatus": 0,
 "doctype": "Print Format",
 "font": "Default",
 "html": "{%- from \"templates/print_formats/standard_macros.html\" import add_header -%}\r\n<div>\r\n    <div class=\"row margin-bottom\">\r\n        <div class=\"col-lg-12\">\r\n            <table width=\"100%\" border=\"0\" cellspacing=\"0\" cellpadding=\"5\">\r\n                <tr style=\"border:1px solid #ccc;\">\r\n                    <td style=\"border-right:1px solid #ccc;\"><img src=\"https://www.trueview.co.in/wp-content/uploads/2018/12/logo.png\" height=\"50px\" /></td>\r\n                    <td width=\"70%\" align=\"right\">\r\n                        <strong style=\"font-size: 14px;\">WARNER ELECTRONICS (I) PVT. LTD.</strong><br />\r\n                        Plot No. A114/6, Five Star Industrial Area,\r\n                        Mumbai \u2013 Nagpur Highway, <br/>Shendra, Aurangabad \u2013 431203<br />\r\n                        sales@trueview.co.in | www.trueview.co.in<br/>\r\n                        GTS No. 27AABCL9688B1Z8\r\n                    </td>\r\n                </tr>\r\n\r\n                <tr>\r\n                    <td></td>\r\n                        <td width=\"\" align=\"left\">\r\n                        <strong style=\"margin-left: 73px; font-size:14px;\">DELIVERY NOTE</strong><br />\r\n                    </td>\r\n                </tr>\r\n            </table>\r\n        </div>\r\n    </div>\r\n    <!-- ================================ -->\r\n    <div class=\"row margin-bottom\">\r\n        <div class=\"col-xs-4\">\r\n            <strong>Consignee: </strong><br/>\r\n            <strong>{{ doc.customer_address }}</strong><br/>\r\n                    {% if doc.address_display %}{{doc.address_display}}{% else %} {{ doc.shipping_address }} {% endif %} <br/>\r\n        </div>\r\n        <div class=\"col-xs-4\">\r\n           <strong>Shipping : </strong><br/>\r\n            <strong>{{ doc.shipping_address_name }}</strong><br/>\r\n            {% if doc.shipping_address %}{{ doc.shipping_address }}{% else %}  -{% endif %} <br/>\r\n        </div>\r\n        <div class=\"col-xs-4\">\r\n           <table class=\"pull-right\">\r\n                <tr><td><strong>Delivery Note No: </strong></td><td class=\"text-right pull-right\">{{ doc.name }} </td></tr>\r\n                <tr><td><strong>Delivery Note Date: </strong></td><td class=\"text-right pull-right\">{{ frappe.utils.formatdate(doc.creation) }}</td></tr>\r\n                <!--<tr><td><strong>Due Date: </strong></td><td class=\"text-right\">{{ frappe.utils.formatdate(doc.due_date) }}</td></tr>-->\r\n                \r\n                <!--<tr><td><strong>Sales Executive: </strong></td><td class=\"text-right\">-->\r\n                <!--    {% set un = frappe.db.get_value(\"Sales Invoice\",doc.name,\"owner\") %}-->\r\n                <!--    {% set un1 = frappe.db.get_value(\"User\",un,\"full_name\") %}-->\r\n                <!--    {{un1}}-->\r\n                <!--</td></tr>-->\r\n                {% if(doc.ewaybill) %}<tr><td><strong>E-Way Bill No.: </strong></td><td class=\"text-right\">\r\n                    {{doc.ewaybill}} {% else %} - \r\n                </td></tr>{% endif %}\r\n                {% set executive = frappe.db.get_list(\"Sales Team\",{\"parent\":doc.items[0].sales_order},[\"sales_person\"]) %}\r\n                {% if executive %}\r\n                <tr><td><strong>Sales Executive: </strong></td><td class=\"text-right\">{{executive[0]['sales_person']}}</td></tr>\r\n                {% endif %}    \r\n            </table>\r\n        </div>\r\n    </div>\r\n    <!-- ================================ -->\r\n    <div class=\"margin-top margin-bottom\">\r\n        <table class=\"table table-bordered table-condensed\">\r\n            <tr>\r\n                <th class=\"text-center\">P_Code</th>\r\n                <th class=\"text-center\">Ref_Code</th>\r\n                <th class=\"text-center\">Product Description </th>\r\n                <th class=\"text-center\">Brand </th>\r\n                <th class=\"text-center\">HSN</th>\r\n                <th class=\"text-center\">Quantity</th>\r\n                <th class=\"text-center\">Rate</th>\r\n                <th class=\"text-center\">Amount</th>\r\n            </tr>\r\n            {% set dv = 1 %}\r\n            {% set a = [] %}\r\n            {% set arr_qtys = [] %}\r\n            {% set nsqty = namespace(itemsqty=0) %}\r\n            {% set ns = namespace(itemss=0) %}\r\n            {% for item in doc.items %}\r\n            <!--{{ doc.items | selectattr(\"gst_hsn_code\", \"equalto\", item.gst_hsn_code) | list | count }}-->\r\n            {% if(dv == 1) %}\r\n            <!--{{ a.append(item.gst_hsn_code) }} -->\r\n            {% endif %}\r\n            \r\n            {% if(item.gst_hsn_code != ns.itemss) %}\r\n            <!--match not found for {{ item.gst_hsn_code }} ({{item.qty}})-->\r\n            {% set nsqty.itemsqty = item.qty %} <!-- [ {{nsqty.itemsqty}} ] -->\r\n            <!--{{ arr_qtys.append(nsqty.itemsqty) }} -->\r\n            {% else %}\r\n            <!--match found {{ item.gst_hsn_code }} ({{item.qty}})-->\r\n            {% set nsqty.itemsqty = nsqty.itemsqty+item.qty %} <!-- [ {{nsqty.itemsqty}} ] -->\r\n            <!--{{arr_qtys.pop()}}-->\r\n            <!--{{ arr_qtys.append(nsqty.itemsqty) }} -->\r\n            {% endif %}\r\n            {% set ns.itemss = item.gst_hsn_code %}\r\n            \r\n            {% if item.item_group != \"Shipping Item\" %}\r\n            <tr>\r\n                <td class=\"text-right\">{{ item.item_code }}</td>\r\n                <td class=\"text-right\">{{ item.reference_code }}</td>\r\n                <td>{{ item.item_name }}</td>\r\n                <td>{{ item.item_brand }}</td>\r\n                <td class=\"text-right\">{{ item.gst_hsn_code }}</td>\r\n                <td class=\"text-right\">{{ item.qty}}</td>\r\n                <td class=\"text-right\">\u20b9{{'%0.2f' % item.rate }}</td>\r\n                <td class=\"text-right\">\u20b9{{'%0.2f' %  item.amount }}</td>\r\n            </tr>\r\n            {% endif %}\r\n            {% endfor %}\r\n            {% set lbt =  a|join(',') %} \r\n            <!--all hsn {{lbt}}-->\r\n        </table>\r\n    </div>\r\n    <!-- ================================ -->\r\n    <div class=\"row margin-bottom\">\r\n        <div class=\"col-xs-9 text-right div-taxbreakup\" style=\"padding-right:0px\">\r\n            {% if doc.other_charges_calculation %}{{doc.other_charges_calculation}}{% endif %}     \r\n        </div>\r\n        \r\n        <div class=\"col-xs-3 text-right\">\r\n            <table class=\"table table-bordered pull-right\" >\r\n                <!--tr><td><strong>Total: </strong></td><td class=\"text-right\">{% for item in doc.items %}\r\n                {% if item.item_group == \"Shipping Item\" %}\r\n                {{doc.total - item.amount}}{% endif %}\r\n                {% endfor %}</td></tr-->\r\n                \r\n                <tr><td><strong>Total:   </strong></td><td class=\"text-right\">  \u20b9{{'%0.2f' % doc.net_total}}</td>\r\n                {% if doc.custom_discount_amount %}\r\n                <tr><td><strong>Discount: </strong></td>\r\n                <td class=\"text-right\">  \u20b9{{'%0.2f' % doc.custom_discount_amount}}</td>\r\n                </tr>{% endif %}\r\n                <tr><td><strong>{% for item in doc.items %}\r\n                    {% if item.item_group == \"Shipping Item\" %}\r\n                    {{item.item_name}}\r\n                    : </strong></td><td class=\"text-right\">  \u20b9{{ '%0.2f' % item.amount}}</td></tr>{% endif %}\r\n                    {% endfor %}\r\n                {% set cnt = 0 %}\r\n                {% for tax in doc.taxes %}\r\n                \r\n                    {% if tax.tax_amount_after_discount_amount!= 0 %}\r\n                        <tr><td><strong>{{ tax.account_head.split('-')[0] }}: </strong></td><td class=\"text-right\">  \u20b9{{ '%0.2f' % tax.tax_amount_after_discount_amount }}</td></tr>\r\n                    {% endif %}\r\n                {% endfor %}\r\n                 <!--<tr><td><strong>{% for item in doc.items %}-->\r\n                 <!--   {% if item.item_group == \"Shipping Item\" %}-->\r\n                 <!--   {{item.item_name}}-->\r\n                 <!--   : </strong></td><td class=\"text-right\">{{item.amount}}</td></tr>{% endif %}-->\r\n                 <!--   {% endfor %}-->\r\n                  <!--tr><td><strong>SGST: </strong></td><td class=\"right top-bottom text-right\">pending</td></tr>\r\n                   <tr><td><strong>CGST: </strong></td><td class=\"right top-bottom text-right\">pending</td></tr-->\r\n                <tr><td><strong>Net Payable: </strong></td><td class=\"text-right\">  \u20b9{{ '%0.2f' %doc.grand_total}}</td></tr>\r\n                <tr><td><strong>Round Off: </strong></td><td class=\"text-right\">  \u20b9{{'%0.2f' % doc.rounded_total }}</td></tr>\r\n                \r\n                <!--<tr><td></td></tr>-->\r\n            </table>\r\n        </div>\r\n\r\n    </div>\r\n    <!-- ================================ -->\r\n    <div class=\"row margin-bottom margin-top\">\r\n        <div class=\"col-xs-12 text-left margin-bottom\">Amount In Words: <strong>{{ doc.in_words }}</strong><br/></div>\r\n    </div>\r\n    <!-- ================================ -->\r\n    <div class=\"row margin-top\">\r\n        <div class=\"col-xs-8 \">\r\n            <strong>Gross Consignment Weight : {{doc.total_net_weight}} KG </strong>  <br/><br/><br/>  \r\n            <strong>Remark (if any) : {% if doc.remark_if_any %} {{doc.remark_if_any}} {% else %} - {% endif %} </strong>  <br/><br/><br/>\r\n                \r\n        </div>\r\n        <!-- ============ // ============ -->\r\n        <div class=\"col-xs-4 text-right\">\r\n            <strong>For Warner Electronics (I) Pvt. Ltd.</strong>\r\n                <br /><img src=\"files/weipl-stamp.png\" style=\"width:100px;position: absolute;left: 80px;\">\r\n                <br /><img src=\"files/authorized-signature.jpeg\" style=\"width:100px\"><br>\r\n            <strong>Authorised Signatory</strong>\r\n        </div>\r\n    </div>\r\n      <div class=\"row margin-top\">\r\n        <div class=\"col-xs-12 \">\r\n            <strong> Terms and Condition: </strong>\r\n            <p class=\"font-term\">{% if doc.terms %}{{doc.terms}}{% else %}  -{% endif %} </p>    \r\n        </div>\r\n    \r\n    </div>\r\n</div>\r\n\r\n",
 "idx": 0,
 "line_breaks": 0,
 "modified": "2020-10-24 11:15:48.812595",
 "modified_by": "Administrator",
 "module": "Shipping Management",
 "name": "Delivery Note V1",
 "owner": "Administrator",
 "print_format_builder": 0,
 "print_format_type": "Jinja",
 "raw_printing": 0,
 "show_section_headings": 0,
 "standard": "Yes"
}